# Blender v2.80 (sub 75) OBJ File: 'arbre.blend'
# www.blender.org
mtllib arbre.mtl
o Tronc_Cube.002
v -0.810786 -0.111185 0.651315
v -0.621460 11.748573 0.256477
v -0.567103 -0.038793 -0.580675
v -0.147828 11.860857 -0.412835
v 0.374750 -0.246312 0.515775
v 0.406405 11.844793 0.522199
v 0.506442 -0.133149 -0.619548
v 0.044534 12.117157 0.397665
v -0.230501 7.321718 0.345842
v -0.342325 7.372272 -0.208951
v 0.316201 7.372272 -0.208951
v 0.318465 7.405055 0.439124
v -0.710873 2.202403 -0.165938
v 0.316201 3.664020 -0.208951
v 0.458046 3.118199 0.387091
v -0.441326 3.677172 0.529564
v -0.433502 11.183828 0.246711
v -0.092502 11.400993 -0.043735
v 0.221316 11.193128 -0.115641
v 0.386322 11.817075 0.511839
v -0.290959 9.264091 -0.064990
v 0.192382 9.224867 -0.037456
v 0.236666 9.337516 0.483930
v -0.281493 9.253216 0.328430
v -0.458709 5.238783 0.324783
v -0.365450 5.489563 -0.114933
v 0.316201 5.518146 -0.208951
v 0.206651 5.640927 0.526473
v -0.368900 8.189274 -0.075793
v 0.184473 8.253913 -0.113017
v 0.171896 8.268617 0.398143
v -0.372982 8.324168 0.326486
v -0.388404 6.307619 0.367630
v -0.303716 6.469062 -0.085043
v 0.316201 6.445209 -0.208951
v 0.316201 6.445209 0.449575
v -0.316340 10.146111 0.231594
v -0.237857 10.228332 -0.105264
v 0.133013 10.150895 -0.128945
v 0.265507 10.171842 0.321535
vt 0.760661 0.245494
vt 0.807395 0.432430
vt 0.760661 0.432430
vt 0.807395 0.619365
vt 0.760661 0.619365
vt 0.760661 0.806300
vt 0.807395 0.993236
vt 0.760661 0.993236
vt 0.433524 0.619365
vt 0.620459 0.806300
vt 0.433524 0.806300
vt 0.994330 0.806300
vt 0.807395 0.806300
vt 0.702244 0.806300
vt 0.713927 0.993236
vt 0.702244 0.993236
vt 0.702244 0.619365
vt 0.713927 0.806300
vt 0.702244 0.432430
vt 0.713927 0.619365
vt 0.702244 0.245494
vt 0.713927 0.432430
vt 0.620459 0.245494
vt 0.667193 0.432430
vt 0.620459 0.432430
vt 0.667193 0.619365
vt 0.620459 0.619365
vt 0.667193 0.993236
vt 0.620459 0.993236
vt 0.748978 0.993236
vt 0.748978 0.806300
vt 0.748978 0.619365
vt 0.748978 0.432430
vt 0.748978 0.245494
vt 0.725610 0.245494
vt 0.737294 0.432430
vt 0.725610 0.432430
vt 0.725610 0.619365
vt 0.737294 0.619365
vt 0.725610 0.806300
vt 0.737294 0.993236
vt 0.725610 0.993236
vt 0.690560 0.245494
vt 0.667193 0.245494
vt 0.690560 0.432430
vt 0.690560 0.619365
vt 0.667193 0.806300
vt 0.690560 0.993236
vt 0.713927 0.245494
vt 0.690560 0.806300
vt 0.737294 0.245494
vt 0.737294 0.806300
vt 0.807395 0.245494
vt 0.994330 0.619365
vn -0.2354 -0.6254 -0.7439
vn 0.1359 0.5008 -0.8548
vn 0.6210 0.4681 -0.6287
vn -0.2384 -0.0960 0.9664
vn -0.1221 -0.9891 -0.0823
vn -0.2576 0.0973 0.9613
vn -0.1232 0.0405 0.9916
vn 1.0000 -0.0024 0.0000
vn -0.1960 0.0000 -0.9806
vn -0.9757 -0.0702 -0.2076
vn -0.9803 -0.0267 -0.1955
vn -0.0267 0.1061 -0.9940
vn 0.9922 0.0369 0.1188
vn 0.1159 0.0206 0.9930
vn -0.1475 -0.1030 0.9837
vn 0.9574 -0.0776 -0.2780
vn -0.0514 0.0587 -0.9970
vn -0.9721 0.1307 -0.1946
vn -0.9968 0.0726 -0.0345
vn -0.0689 0.0150 -0.9975
vn 0.9996 -0.0101 0.0249
vn -0.1293 0.0107 0.9915
vn -0.9515 0.0296 0.3061
vn -0.0750 0.0233 -0.9969
vn 0.9728 0.0000 -0.2315
vn 0.2329 0.1290 0.9639
vn -0.1701 0.0179 0.9853
vn 0.9888 0.1489 -0.0110
vn 0.0000 0.1082 -0.9941
vn -0.9794 -0.0631 0.1917
vn -0.9831 0.0672 -0.1702
vn -0.1381 0.0389 -0.9896
vn 0.9792 -0.1176 0.1655
vn -0.2789 -0.0201 0.9601
vn -0.9991 -0.0365 0.0230
vn 0.0532 -0.0446 -0.9976
vn 0.9961 -0.0488 -0.0740
vn -0.3106 0.1919 0.9310
vn -0.7711 -0.2465 -0.5870
vn 0.9753 -0.0546 -0.2142
vn 0.3741 0.0744 -0.9244
vn -0.2289 -0.1910 0.9545
vn -0.0910 -0.9898 -0.1092
vn -0.4492 0.8770 -0.1707
vn -0.1692 0.0111 0.9855
vn 1.0000 0.0000 -0.0035
vn 0.0000 -0.1359 -0.9907
vn -0.9656 0.1548 0.2087
vn -0.9809 0.1010 0.1660
vn -0.2659 0.1589 -0.9508
vn 0.9648 -0.0339 -0.2606
vn 0.1765 0.0333 0.9837
vn -0.2757 -0.0451 0.9602
vn 0.9766 -0.0475 -0.2096
vn -0.2044 0.0298 -0.9784
vn -0.6251 -0.0592 -0.7783
vn -0.9948 0.0979 0.0266
vn 0.0629 0.0769 -0.9950
vn 0.9959 -0.0545 -0.0728
vn -0.2779 -0.0601 0.9587
vn -0.9833 0.1056 -0.1483
vn -0.1366 0.0000 -0.9906
vn 0.9871 0.0911 0.1318
vn -0.2458 -0.0779 0.9662
vn -0.1303 0.0006 0.9915
vn 0.9856 0.1682 0.0194
vn -0.0846 0.1576 -0.9839
vn -0.9895 -0.1399 0.0369
vn -0.9847 0.0711 -0.1589
vn 1.0000 0.0000 0.0000
vn -0.1365 0.1127 0.9842
vn -0.9753 0.0447 -0.2163
vn -0.0849 -0.1034 -0.9910
vn 0.9584 0.0334 -0.2834
vn -0.1563 0.1005 0.9826
usemtl None
s off
f 17/1/1 4/2/1 18/3/1
f 18/3/2 8/4/2 19/5/2
f 8/4/3 20/6/3 19/5/3
f 20/6/4 2/7/4 17/8/4
f 3/9/5 5/10/5 1/11/5
f 8/4/6 2/12/6 6/13/6
f 36/14/7 9/15/7 33/16/7
f 35/17/8 12/18/8 36/14/8
f 34/19/9 11/20/9 35/17/9
f 33/21/10 10/22/10 34/19/10
f 1/23/11 13/24/11 3/25/11
f 3/25/12 14/26/12 7/27/12
f 14/26/13 5/10/13 7/27/13
f 5/10/14 16/28/14 1/29/14
f 20/6/15 37/30/15 40/31/15
f 19/5/16 40/31/16 39/32/16
f 18/3/17 39/32/17 38/33/17
f 37/34/18 18/3/18 38/33/18
f 32/35/19 21/36/19 29/37/19
f 21/36/20 30/38/20 29/37/20
f 22/39/21 31/40/21 30/38/21
f 31/40/22 24/41/22 32/42/22
f 25/43/23 13/24/23 16/44/23
f 26/45/24 14/26/24 13/24/24
f 27/46/25 15/47/25 14/26/25
f 15/47/26 25/48/26 16/28/26
f 31/40/27 9/15/27 12/18/27
f 30/38/28 12/18/28 11/20/28
f 10/22/29 30/38/29 11/20/29
f 9/49/30 29/37/30 10/22/30
f 25/43/31 34/19/31 26/45/31
f 34/19/32 27/46/32 26/45/32
f 27/46/33 36/14/33 28/50/33
f 28/50/34 33/16/34 25/48/34
f 37/34/35 21/36/35 24/51/35
f 38/33/36 22/39/36 21/36/36
f 22/39/37 40/31/37 23/52/37
f 40/31/38 24/41/38 23/52/38
f 17/1/39 2/53/39 4/2/39
f 18/3/40 4/2/40 8/4/40
f 8/4/41 6/13/41 20/6/41
f 20/6/42 6/13/42 2/7/42
f 3/9/43 7/27/43 5/10/43
f 8/4/44 4/54/44 2/12/44
f 36/14/45 12/18/45 9/15/45
f 35/17/46 11/20/46 12/18/46
f 34/19/47 10/22/47 11/20/47
f 33/21/48 9/49/48 10/22/48
f 1/23/49 16/44/49 13/24/49
f 3/25/50 13/24/50 14/26/50
f 14/26/51 15/47/51 5/10/51
f 5/10/52 15/47/52 16/28/52
f 20/6/53 17/8/53 37/30/53
f 19/5/54 20/6/54 40/31/54
f 18/3/55 19/5/55 39/32/55
f 37/34/56 17/1/56 18/3/56
f 32/35/57 24/51/57 21/36/57
f 21/36/58 22/39/58 30/38/58
f 22/39/59 23/52/59 31/40/59
f 31/40/60 23/52/60 24/41/60
f 25/43/61 26/45/61 13/24/61
f 26/45/62 27/46/62 14/26/62
f 27/46/63 28/50/63 15/47/63
f 15/47/64 28/50/64 25/48/64
f 31/40/65 32/42/65 9/15/65
f 30/38/66 31/40/66 12/18/66
f 10/22/67 29/37/67 30/38/67
f 9/49/68 32/35/68 29/37/68
f 25/43/69 33/21/69 34/19/69
f 34/19/9 35/17/9 27/46/9
f 27/46/70 35/17/70 36/14/70
f 28/50/71 36/14/71 33/16/71
f 37/34/72 38/33/72 21/36/72
f 38/33/73 39/32/73 22/39/73
f 22/39/74 39/32/74 40/31/74
f 40/31/75 37/30/75 24/41/75
o Feuille_Icosphere
v -0.013062 11.503973 0.120312
v 3.798170 14.423968 3.341713
v -1.083896 14.466868 4.886140
v -4.427254 14.508531 0.343610
v -1.468795 14.423966 -5.021202
v 3.798170 14.423968 -3.101089
v 1.511139 18.034155 3.932674
v -2.949049 17.665331 3.234864
v -3.710933 17.920853 -2.543837
v 1.442671 17.823465 -4.595450
v 3.895800 17.720188 0.268366
v -0.117802 19.361094 -0.340957
v -0.868714 12.890632 3.184052
v 2.227108 12.890633 2.013791
v 1.033339 14.169550 4.826929
v 4.467291 14.125550 0.120312
v 2.227108 12.890633 -1.773167
v -2.782075 12.890642 0.120312
v -3.393013 14.160848 2.854797
v -0.868714 12.890632 -2.943428
v -3.609633 14.225096 -2.375235
v 1.371465 14.125544 -5.074384
v 4.977746 16.113354 2.084714
v 4.996150 16.123716 -1.773174
v 1.078256 16.402617 5.976377
v 3.137625 15.745754 4.739514
v -4.757755 15.871378 3.222893
v -3.081089 16.047359 5.446914
v -3.474279 16.123716 -5.118003
v -5.615181 16.123716 -1.773174
v 3.278339 15.906175 -5.472480
v -0.013062 16.123716 -6.535242
v 3.261940 18.085312 2.244659
v -0.886048 17.998318 4.644538
v -3.985002 17.910334 1.335480
v -1.914399 18.121889 -4.140474
v 3.169606 18.211517 -2.188777
v 0.568920 18.756836 2.523244
v 1.535127 19.222240 -0.479038
v -2.099873 18.636717 2.069423
v -1.537027 19.041849 -1.572074
v 0.943736 18.642656 -2.434786
v -0.619584 11.747920 0.255651
v -0.440888 12.197302 1.652182
v -0.440888 12.197302 -1.411558
v -1.151165 12.132389 0.113273
v 0.999087 12.271778 1.076050
v 1.082130 12.276910 -0.750619
v -0.683623 12.550306 2.410570
v -0.460102 12.610518 -2.060992
v -2.008234 12.512012 -0.088817
v 1.866244 14.897245 2.349480
v 1.329943 13.825756 2.592291
v 1.731918 13.700397 3.021437
v -1.756186 17.080284 5.419150
v 1.530087 13.634932 2.231663
v -0.467322 13.964129 1.488045
vt 0.242409 0.459480
vt 0.254458 0.506219
vt 0.265725 0.472641
vt 0.195778 0.433159
vt 0.241889 0.405936
vt 0.195257 0.379615
vt 0.249903 0.037706
vt 0.238766 0.084670
vt 0.244530 0.081267
vt 0.245115 0.141504
vt 0.239807 0.191758
vt 0.251335 0.184953
vt 0.251985 0.251883
vt 0.240848 0.298847
vt 0.263904 0.285236
vt 0.149146 0.406838
vt 0.196819 0.540248
vt 0.196298 0.486703
vt 0.150187 0.513926
vt 0.192655 0.111893
vt 0.192134 0.058348
vt 0.146024 0.085571
vt 0.193696 0.218981
vt 0.193175 0.165437
vt 0.147064 0.192660
vt 0.194737 0.326070
vt 0.194216 0.272526
vt 0.148105 0.299749
vt 0.149667 0.460382
vt 0.150708 0.567471
vt 0.146544 0.139116
vt 0.147585 0.246204
vt 0.148626 0.353293
vt 0.103556 0.487605
vt 0.103036 0.434061
vt 0.056924 0.461283
vt 0.104597 0.594694
vt 0.104077 0.541150
vt 0.057965 0.568373
vt 0.100433 0.166339
vt 0.099913 0.112794
vt 0.053802 0.140017
vt 0.101474 0.273427
vt 0.100954 0.219883
vt 0.054843 0.247106
vt 0.102515 0.380516
vt 0.101995 0.326972
vt 0.055883 0.354195
vt 0.055363 0.300650
vt 0.009252 0.327873
vt 0.054322 0.193562
vt 0.008211 0.220785
vt 0.053281 0.086473
vt 0.007170 0.113696
vt 0.099392 0.059250
vt 0.057445 0.514828
vt 0.011334 0.542051
vt 0.056404 0.407739
vt 0.010293 0.434962
vt 0.127392 0.554310
vt 0.145503 0.032027
vt 0.191614 0.004804
vt 0.240328 0.245303
vt 0.239287 0.138214
vt 0.238246 0.031125
vt 0.241369 0.352392
vt 0.264945 0.392325
vt 0.288000 0.378713
vt 0.264684 0.365552
vt 0.242930 0.513025
vt 0.262602 0.151375
vt 0.262863 0.178147
vt 0.285918 0.164536
vt 0.261561 0.044286
vt 0.261822 0.071058
vt 0.284877 0.057447
vt 0.263643 0.258464
vt 0.286959 0.271624
vt 0.250294 0.077864
vt 0.265986 0.499413
vt 0.289041 0.485802
vt 0.250944 0.144794
vn 0.1592 -0.9069 0.3900
vn 0.5952 -0.7794 0.1958
vn -0.3814 -0.8988 0.2159
vn -0.2050 -0.9563 -0.2087
vn 0.1369 -0.9095 -0.3926
vn 0.8692 -0.4421 0.2215
vn -0.0393 -0.4567 0.8888
vn -0.7399 -0.6369 0.2165
vn -0.5481 -0.6748 -0.4942
vn 0.5156 -0.6712 -0.5326
vn 0.8210 -0.1670 0.5459
vn -0.0791 -0.4206 0.9038
vn -0.8705 -0.4759 0.1254
vn -0.3390 -0.4471 -0.8278
vn 0.8687 -0.3114 -0.3851
vn 0.2599 0.9187 0.2974
vn -0.4030 0.8258 0.3947
vn -0.4478 0.8937 -0.0292
vn 0.0363 0.9372 -0.3469
vn 0.5343 0.8452 0.0111
vn 0.0551 0.9527 -0.2990
vn 0.2148 0.9168 -0.3366
vn 0.2134 0.9288 -0.3029
vn 0.0481 0.9520 -0.3023
vn 0.0325 0.9394 -0.3413
vn -0.3423 0.8994 -0.2719
vn -0.2721 0.9601 0.0648
vn -0.3744 0.9261 0.0452
vn -0.4528 0.8189 0.3526
vn -0.0819 0.9710 0.2245
vn -0.0906 0.9558 0.2797
vn 0.1044 0.9116 0.3976
vn 0.0975 0.9783 0.1830
vn 0.2577 0.9388 0.2285
vn 0.5334 0.8457 0.0148
vn 0.7585 0.6446 -0.0953
vn 0.7336 0.5674 -0.3740
vn 0.5121 0.7109 -0.4821
vn -0.0206 0.7596 -0.6501
vn -0.3034 0.5993 -0.7409
vn -0.5339 0.6695 -0.5165
vn -0.6956 0.7168 -0.0472
vn -0.8580 0.4841 0.1717
vn -0.6372 0.6396 0.4300
vn -0.5337 0.6974 0.4783
vn -0.1409 0.2068 0.9682
vn 0.1779 0.7503 0.6367
vn 0.5481 0.5963 0.5865
vn 0.6601 0.5313 0.5311
vn 0.7536 0.6458 0.1224
vn 0.2801 0.6080 -0.7429
vn 0.2462 -0.4550 -0.8558
vn -0.0801 -0.6239 -0.7774
vn -0.7025 0.5516 -0.4497
vn -0.6839 -0.5836 -0.4378
vn -0.7025 -0.6981 -0.1385
vn -0.6373 0.6396 0.4298
vn -0.6149 -0.6006 0.5111
vn -0.4060 -0.7150 0.5692
vn 0.5447 0.5954 0.5907
vn 0.3586 -0.4329 0.8270
vn 0.4358 -0.5420 0.7185
vn 0.8266 0.5628 0.0055
vn 0.9676 -0.2524 0.0039
vn 0.8701 -0.4402 -0.2215
vn 0.4337 -0.8013 -0.4121
vn 0.1433 -0.9142 -0.3791
vn -0.0962 -0.8140 -0.5729
vn -0.4655 -0.7710 -0.4346
vn -0.4669 -0.8348 -0.2916
vn -0.7039 -0.6966 -0.1391
vn -0.6772 -0.7134 0.1801
vn -0.4602 -0.8400 0.2874
vn -0.4239 -0.6906 0.5859
vn 0.5952 -0.7794 -0.1958
vn 0.4828 -0.8758 0.0000
vn 0.5894 -0.8075 0.0245
vn -0.0846 -0.7364 0.6712
vn 0.1771 -0.8655 0.4686
vn 0.3445 -0.7909 0.5057
vn -0.4112 -0.8681 -0.2781
vn -0.2891 -0.8999 0.3266
vn 0.4724 -0.8814 0.0000
vn 0.2424 -0.8566 -0.4554
vn -0.5227 -0.7262 -0.4466
vn -0.4612 -0.8517 0.2488
vn 0.2260 -0.8622 0.4534
vn 0.1624 -0.8882 0.4297
vn -0.4367 -0.8573 0.2727
vn -0.4836 -0.8215 -0.3020
vn 0.1345 -0.9248 -0.3559
vn -0.4311 0.7846 0.4456
vn 0.0032 0.6431 0.7658
vn -0.5143 -0.8126 -0.2742
vn -0.6102 -0.7280 0.3124
vn 0.4393 -0.8982 0.0174
vn 0.2691 -0.8089 -0.5227
vn -0.3557 -0.9119 -0.2045
vn -0.4405 -0.8632 0.2467
vn 0.2323 -0.8512 0.4706
usemtl Material.001
s off
f 54/55/76 89/56/76 87/57/76
f 42/58/77 54/59/77 56/60/77
f 89/61/78 58/62/78 91/63/78
f 91/64/79 60/65/79 90/66/79
f 90/67/80 57/68/80 88/69/80
f 42/58/81 56/60/81 63/70/81
f 43/71/82 55/72/82 65/73/82
f 44/74/83 59/75/83 67/76/83
f 45/77/84 61/78/84 69/79/84
f 46/80/85 62/81/85 71/82/85
f 42/58/86 63/70/86 66/83/86
f 43/71/87 65/73/87 68/84/87
f 44/74/88 67/76/88 70/85/88
f 45/77/89 69/79/89 72/86/89
f 46/80/90 71/82/90 64/87/90
f 47/88/91 73/89/91 78/90/91
f 48/91/92 74/92/92 80/93/92
f 49/94/93 75/95/93 81/96/93
f 50/97/94 76/98/94 82/99/94
f 51/100/95 77/101/95 79/102/95
f 79/102/96 82/103/96 52/104/96
f 79/102/97 77/101/97 82/103/97
f 77/101/98 50/97/98 82/103/98
f 82/99/99 81/105/99 52/106/99
f 82/99/100 76/98/100 81/105/100
f 76/98/101 49/94/101 81/105/101
f 81/96/102 80/107/102 52/108/102
f 81/96/103 75/95/103 80/107/103
f 75/95/104 48/109/104 80/107/104
f 80/93/105 78/110/105 52/111/105
f 80/93/106 74/92/106 78/110/106
f 74/92/107 47/88/107 78/110/107
f 78/90/108 79/112/108 52/113/108
f 78/90/109 73/89/109 79/112/109
f 73/89/110 51/100/110 79/112/110
f 64/87/111 77/101/111 51/100/111
f 64/87/112 71/82/112 77/101/112
f 71/82/113 50/97/113 77/101/113
f 72/86/114 76/98/114 50/97/114
f 72/86/115 69/79/115 76/98/115
f 69/79/116 49/94/116 76/98/116
f 70/85/117 75/95/117 49/94/117
f 70/85/118 67/76/118 75/95/118
f 67/76/119 48/109/119 75/95/119
f 95/114/120 48/91/120 68/84/120
f 65/73/121 95/114/121 68/84/121
f 65/73/122 47/88/122 74/92/122
f 66/83/123 73/89/123 47/88/123
f 66/83/124 63/70/124 73/89/124
f 63/70/125 51/100/125 73/89/125
f 71/82/126 72/86/126 50/97/126
f 71/82/127 62/81/127 72/86/127
f 62/81/128 45/77/128 72/86/128
f 69/79/129 70/85/129 49/94/129
f 69/79/130 61/78/130 70/85/130
f 61/78/131 44/74/131 70/85/131
f 67/76/132 68/115/132 48/109/132
f 67/76/133 59/75/133 68/115/133
f 59/75/134 43/116/134 68/115/134
f 65/73/135 66/83/135 47/88/135
f 65/73/136 55/72/136 66/83/136
f 55/72/137 42/58/137 66/83/137
f 63/70/138 64/87/138 51/100/138
f 63/70/139 56/60/139 64/87/139
f 56/60/140 46/80/140 64/87/140
f 57/68/141 62/81/141 46/80/141
f 57/68/142 60/117/142 62/81/142
f 60/117/143 45/77/143 62/81/143
f 60/65/144 61/78/144 45/77/144
f 60/65/145 58/118/145 61/78/145
f 58/118/146 44/74/146 61/78/146
f 58/62/147 59/75/147 44/74/147
f 58/62/148 53/119/148 59/75/148
f 53/119/149 43/116/149 59/75/149
f 56/60/150 57/120/150 46/80/150
f 56/60/151 54/59/151 57/120/151
f 87/121/152 41/122/152 88/123/152
f 53/124/153 55/72/153 43/71/153
f 53/124/154 54/55/154 55/72/154
f 54/55/155 42/58/155 55/72/155
f 83/125/156 85/126/156 41/127/156
f 84/128/157 83/129/157 41/130/157
f 54/59/158 88/123/158 57/120/158
f 85/131/159 88/69/159 41/132/159
f 85/126/160 91/64/160 90/66/160
f 89/61/161 86/133/161 84/128/161
f 87/57/162 84/134/162 41/135/162
f 54/55/163 53/124/163 89/56/163
f 89/61/164 53/119/164 58/62/164
f 91/64/165 58/118/165 60/65/165
f 90/67/166 60/117/166 57/68/166
f 95/114/167 74/92/167 48/91/167
f 65/73/168 74/92/168 95/114/168
f 83/125/169 86/136/169 85/126/169
f 84/128/170 86/133/170 83/129/170
f 54/59/171 87/121/171 88/123/171
f 85/131/172 90/67/172 88/69/172
f 85/126/173 86/136/173 91/64/173
f 89/61/174 91/63/174 86/133/174
f 87/57/175 89/56/175 84/134/175
